{
	"app-id": "se.liu.isy.lmia",
	"runtime": "org.freedesktop.Platform",
	"runtime-version": "22.08",
	"sdk": "org.freedesktop.Sdk",
	"command": "lmia",
	"finish-args": [
		"--share=ipc",
		"--socket=x11"
	],
	"cleanup": [
		"/bin/uil",
		"/bin/mwm",
		"/bin/xmbind",
		"/share/Xm",
		"/share/man",
		"/share/doc",
		"/share/pkgconfig",
		"/include/*",
		"*.a",
		"*.la"
	],
	"modules": [
		{
			"name": "lmia",
			"buildsystem": "simple",
			"build-commands": [
				"install -Dm755 lmia -t /app/bin",
				"install -Dm644 ${FLATPAK_ID}.desktop -t /app/share/applications"
			],
			"sources": [
				{
					"type": "file",
					/* Program must be acquired manually as there's no good public direct download.
					   See README.md. */
					"path": "lmia"
				},
				{
					"type": "file",
					"path": "se.liu.isy.lmia.desktop"
				}
			]
		},
		{
			"name": "xbitmaps",
			"buildsystem": "autotools",
			"sources": [
				{
					"type": "archive",
					"url": "https://xorg.freedesktop.org/releases/individual/data/xbitmaps-1.1.2.tar.bz2",
					"sha256": "b9f0c71563125937776c8f1f25174ae9685314cbd130fb4c2efce811981e07ee"
				}
			]
		},
		{
			"name": "libxft",
			"buildsystem": "autotools",
			"sources": [
				{
					"type": "archive",
					"url": "https://xorg.freedesktop.org/releases/individual/lib/libXft-2.3.4.tar.bz2",
					"sha256": "57dedaab20914002146bdae0cb0c769ba3f75214c4c91bd2613d6ef79fc9abdd"
				}
			]
		},
		{
			"name": "openmotif",
			"buildsystem": "autotools",
			"sources": [
				{
					"type": "archive",
					"url": "https://downloads.sourceforge.net/project/motif/Motif%202.3.8%20Source%20Code/motif-2.3.8.tar.gz",
					"sha256": "859b723666eeac7df018209d66045c9853b50b4218cecadb794e2359619ebce7"
				}
			]
		}
	]
}
